SSN_Prefix,TerminalID,UserID,Password,MOB_URL,MOCA_URL,WRK_Location,WRK_EqType,WRK_Area,Iterations,rcv_dock,lpn_prefix,rcv.assetType,dep_stage,wait_identify,wait_deposit
rcv-,PTRCV.41,PTRCV.41,PTRCV.41,https://rmv-uat-byn01.cb.crateandbarrel.com:8092,https://rmv-uat-byn01.cb.crateandbarrel.com:4510/service,RD028,HAND,,20,RD068,LXR41,CHEP-US-PLT,STG068,60000,60000
rcv-,PTRCV.42,PTRCV.42,PTRCV.42,https://rmv-uat-byn01.cb.crateandbarrel.com:8092,https://rmv-uat-byn01.cb.crateandbarrel.com:4510/service,RD028,HAND,,20,RD069,LXR42,CHEP-US-PLT,STG069,60000,60000
rcv-,PTRCV.43,PTRCV.43,PTRCV.43,https://rmv-uat-byn01.cb.crateandbarrel.com:8092,https://rmv-uat-byn01.cb.crateandbarrel.com:4510/service,RD028,HAND,,20,RD070,LXR43,CHEP-US-PLT,STG070,60000,60000
rcv-,PTRCV.44,PTRCV.44,PTRCV.44,https://rmv-uat-byn01.cb.crateandbarrel.com:8092,https://rmv-uat-byn01.cb.crateandbarrel.com:4510/service,RD028,HAND,,20,RD071,LXR44,CHEP-US-PLT,STG071,60000,60000
rcv-,PTRCV.45,PTRCV.45,PTRCV.45,https://rmv-uat-byn01.cb.crateandbarrel.com:8092,https://rmv-uat-byn01.cb.crateandbarrel.com:4510/service,RD028,HAND,,20,RD072,LXR45,CHEP-US-PLT,STG072,60000,60000
rcv-,PTRCV.46,PTRCV.46,PTRCV.46,https://rmv-uat-byn01.cb.crateandbarrel.com:8092,https://rmv-uat-byn01.cb.crateandbarrel.com:4510/service,RD028,HAND,,20,RD073,LXR46,CHEP-US-PLT,STG073,60000,60000
rcv-,PTRCV.47,PTRCV.47,PTRCV.47,https://rmv-uat-byn01.cb.crateandbarrel.com:8092,https://rmv-uat-byn01.cb.crateandbarrel.com:4510/service,RD028,HAND,,20,RD074,LXR47,CHEP-US-PLT,STG074,60000,60000
rcv-,PTRCV.48,PTRCV.48,PTRCV.48,https://rmv-uat-byn01.cb.crateandbarrel.com:8092,https://rmv-uat-byn01.cb.crateandbarrel.com:4510/service,RD028,HAND,,20,RD075,LXR48,CHEP-US-PLT,STG075,60000,60000
rcv-,PTRCV.49,PTRCV.49,PTRCV.49,https://rmv-uat-byn01.cb.crateandbarrel.com:8092,https://rmv-uat-byn01.cb.crateandbarrel.com:4510/service,RD028,HAND,,20,RD076,LXR49,CHEP-US-PLT,STG076,60000,60000
rcv-,PTRCV.50,PTRCV.50,PTRCV.50,https://rmv-uat-byn01.cb.crateandbarrel.com:8092,https://rmv-uat-byn01.cb.crateandbarrel.com:4510/service,RD028,HAND,,20,RD077,LXR50,CHEP-US-PLT,STG077,60000,60000
rcv-,PTRCV.31,PTRCV.31,PTRCV.31,https://rmv-uat-byn01.cb.crateandbarrel.com:8092,https://rmv-uat-byn01.cb.crateandbarrel.com:4510/service,RD028,HAND,,20,RD078,LXR51,CHEP-US-PLT,STG078,60000,60000
rcv-,PTRCV.32,PTRCV.32,PTRCV.32,https://rmv-uat-byn01.cb.crateandbarrel.com:8092,https://rmv-uat-byn01.cb.crateandbarrel.com:4510/service,RD028,HAND,,20,RD079,LXR52,CHEP-US-PLT,STG079,60000,60000
rcv-,PTRCV.33,PTRCV.33,PTRCV.33,https://rmv-uat-byn01.cb.crateandbarrel.com:8092,https://rmv-uat-byn01.cb.crateandbarrel.com:4510/service,RD028,HAND,,20,RD080,LXR53,CHEP-US-PLT,STG080,60000,60000
rcv-,PTRCV.34,PTRCV.34,PTRCV.34,https://rmv-uat-byn01.cb.crateandbarrel.com:8092,https://rmv-uat-byn01.cb.crateandbarrel.com:4510/service,RD028,HAND,,20,RD081,LXR54,CHEP-US-PLT,STG081,60000,60000
rcv-,PTRCV.35,PTRCV.35,PTRCV.35,https://rmv-uat-byn01.cb.crateandbarrel.com:8092,https://rmv-uat-byn01.cb.crateandbarrel.com:4510/service,RD028,HAND,,20,RD082,LXR55,CHEP-US-PLT,STG082,60000,60000
rcv-,PTRCV.36,PTRCV.36,PTRCV.36,https://rmv-uat-byn01.cb.crateandbarrel.com:8092,https://rmv-uat-byn01.cb.crateandbarrel.com:4510/service,RD028,HAND,,20,RD083,LXR56,CHEP-US-PLT,STG083,60000,60000
rcv-,PTRCV.37,PTRCV.37,PTRCV.37,https://rmv-uat-byn01.cb.crateandbarrel.com:8092,https://rmv-uat-byn01.cb.crateandbarrel.com:4510/service,RD028,HAND,,20,RD084,LXR57,CHEP-US-PLT,STG084,60000,60000
rcv-,PTRCV.38,PTRCV.38,PTRCV.38,https://rmv-uat-byn01.cb.crateandbarrel.com:8092,https://rmv-uat-byn01.cb.crateandbarrel.com:4510/service,RD028,HAND,,20,RD085,LXR58,CHEP-US-PLT,STG085,60000,60000
rcv-,PTRCV.39,PTRCV.39,PTRCV.39,https://rmv-uat-byn01.cb.crateandbarrel.com:8092,https://rmv-uat-byn01.cb.crateandbarrel.com:4510/service,RD028,HAND,,20,RD086,LXR59,CHEP-US-PLT,STG086,60000,60000
rcv-,PTRCV.40,PTRCV.40,PTRCV.40,https://rmv-uat-byn01.cb.crateandbarrel.com:8092,https://rmv-uat-byn01.cb.crateandbarrel.com:4510/service,RD028,HAND,,20,RD087,LXR60,CHEP-US-PLT,STG087,60000,60000