SSN_Prefix,TerminalID,UserID,Password,MOB_URL,MOCA_URL,WRK_Location,WRK_EqType,WRK_Area,Iterations,rcv_dock,lpn_prefix,rcv.assetType,dep_stage,wait_identify,wait_deposit
rcv-,PTRCV.01,PTRCV.01,PTRCV.01,https://rmv-uat-byn01.cb.crateandbarrel.com:8092,https://rmv-uat-byn.cb.crateandbarrel.com:4510/service,RD028,HAND,,1,RD087,LXR01,CHEP-US-PLT,STG087,10000,10000
rcv-,PTRCV.02,PTRCV.02,PTRCV.02,https://rmv-uat-byn01.cb.crateandbarrel.com:8092,https://rmv-uat-byn.cb.crateandbarrel.com:4510/service,RD028,HAND,,1,RD086,LXR02,CHEP-US-PLT,STG086,10000,10000
rcv-,PTRCV.03,PTRCV.03,PTRCV.03,https://rmv-uat-byn01.cb.crateandbarrel.com:8092,https://rmv-uat-byn.cb.crateandbarrel.com:4510/service,RD028,HAND,,1,RD085,LXR03,CHEP-US-PLT,STG085,10000,10000
rcv-,PTRCV.04,PTRCV.04,PTRCV.04,https://rmv-uat-byn01.cb.crateandbarrel.com:8092,https://rmv-uat-byn.cb.crateandbarrel.com:4510/service,RD028,HAND,,1,RD084,LXR04,CHEP-US-PLT,STG084,10000,10000
rcv-,PTRCV.05,PTRCV.05,PTRCV.05,https://rmv-uat-byn01.cb.crateandbarrel.com:8092,https://rmv-uat-byn.cb.crateandbarrel.com:4510/service,RD028,HAND,,1,RD083,LXR05,CHEP-US-PLT,STG083,10000,10000
rcv-,PTRCV.06,PTRCV.06,PTRCV.06,https://rmv-uat-byn01.cb.crateandbarrel.com:8092,https://rmv-uat-byn.cb.crateandbarrel.com:4510/service,RD028,HAND,,1,RD082,LXR06,CHEP-US-PLT,STG082,10000,10000
rcv-,PTRCV.07,PTRCV.07,PTRCV.07,https://rmv-uat-byn01.cb.crateandbarrel.com:8092,https://rmv-uat-byn.cb.crateandbarrel.com:4510/service,RD028,HAND,,1,RD081,LXR07,CHEP-US-PLT,STG081,10000,10000
rcv-,PTRCV.08,PTRCV.08,PTRCV.08,https://rmv-uat-byn01.cb.crateandbarrel.com:8092,https://rmv-uat-byn.cb.crateandbarrel.com:4510/service,RD028,HAND,,1,RD080,LXR08,CHEP-US-PLT,STG080,10000,10000
rcv-,PTRCV.09,PTRCV.09,PTRCV.09,https://rmv-uat-byn01.cb.crateandbarrel.com:8092,https://rmv-uat-byn.cb.crateandbarrel.com:4510/service,RD028,HAND,,1,RD079,LXR09,CHEP-US-PLT,STG079,10000,10000
rcv-,PTRCV.10,PTRCV.10,PTRCV.10,https://rmv-uat-byn01.cb.crateandbarrel.com:8092,https://rmv-uat-byn.cb.crateandbarrel.com:4510/service,RD028,HAND,,1,RD078,LXR10,CHEP-US-PLT,STG078,10000,10000
rcv-,PTRCV.11,PTRCV.11,PTRCV.11,https://rmv-uat-byn01.cb.crateandbarrel.com:8092,https://rmv-uat-byn.cb.crateandbarrel.com:4510/service,RD028,HAND,,1,RD077,LXR11,CHEP-US-PLT,STG077,10000,10000
rcv-,PTRCV.12,PTRCV.12,PTRCV.12,https://rmv-uat-byn01.cb.crateandbarrel.com:8092,https://rmv-uat-byn.cb.crateandbarrel.com:4510/service,RD028,HAND,,1,RD076,LXR12,CHEP-US-PLT,STG076,10000,10000
rcv-,PTRCV.13,PTRCV.13,PTRCV.13,https://rmv-uat-byn01.cb.crateandbarrel.com:8092,https://rmv-uat-byn.cb.crateandbarrel.com:4510/service,RD028,HAND,,1,RD075,LXR13,CHEP-US-PLT,STG075,10000,10000
rcv-,PTRCV.14,PTRCV.14,PTRCV.14,https://rmv-uat-byn01.cb.crateandbarrel.com:8092,https://rmv-uat-byn.cb.crateandbarrel.com:4510/service,RD028,HAND,,1,RD074,LXR14,CHEP-US-PLT,STG074,10000,10000
rcv-,PTRCV.15,PTRCV.15,PTRCV.15,https://rmv-uat-byn01.cb.crateandbarrel.com:8092,https://rmv-uat-byn.cb.crateandbarrel.com:4510/service,RD028,HAND,,1,RD073,LXR15,CHEP-US-PLT,STG073,10000,10000
rcv-,PTRCV.16,PTRCV.16,PTRCV.16,https://rmv-uat-byn01.cb.crateandbarrel.com:8092,https://rmv-uat-byn.cb.crateandbarrel.com:4510/service,RD028,HAND,,1,RD072,LXR16,CHEP-US-PLT,STG072,10000,10000
rcv-,PTRCV.17,PTRCV.17,PTRCV.17,https://rmv-uat-byn01.cb.crateandbarrel.com:8092,https://rmv-uat-byn.cb.crateandbarrel.com:4510/service,RD028,HAND,,1,RD071,LXR17,CHEP-US-PLT,STG071,10000,10000
rcv-,PTRCV.18,PTRCV.18,PTRCV.18,https://rmv-uat-byn01.cb.crateandbarrel.com:8092,https://rmv-uat-byn.cb.crateandbarrel.com:4510/service,RD028,HAND,,1,RD070,LXR18,CHEP-US-PLT,STG070,10000,10000
rcv-,PTRCV.19,PTRCV.19,PTRCV.19,https://rmv-uat-byn01.cb.crateandbarrel.com:8092,https://rmv-uat-byn.cb.crateandbarrel.com:4510/service,RD028,HAND,,1,RD069,LXR19,CHEP-US-PLT,STG069,10000,10000
rcv-,PTRCV.20,PTRCV.20,PTRCV.20,https://rmv-uat-byn01.cb.crateandbarrel.com:8092,https://rmv-uat-byn.cb.crateandbarrel.com:4510/service,RD028,HAND,,1,RD068,LXR20,CHEP-US-PLT,STG068,10000,10000
